H:\workspace\TestTask\testtask\src\main\java\com\agileengine\testtask\services\XmlCompareService.java
H:\workspace\TestTask\testtask\src\main\java\com\agileengine\testtask\Main.java
H:\workspace\TestTask\testtask\src\main\java\com\agileengine\testtask\grabbers\SimilarTextGrabber.java
H:\workspace\TestTask\testtask\src\main\java\com\agileengine\testtask\utils\ArgumentValidator.java
H:\workspace\TestTask\testtask\src\main\java\com\agileengine\testtask\grabbers\SameIdGrabber.java
H:\workspace\TestTask\testtask\src\main\java\com\agileengine\testtask\utils\XmlUtils.java
H:\workspace\TestTask\testtask\src\main\java\com\agileengine\testtask\grabbers\ElementGrabber.java
H:\workspace\TestTask\testtask\src\main\java\com\agileengine\testtask\grabbers\SimilarAttributeGrabber.java
H:\workspace\TestTask\testtask\src\main\java\com\agileengine\testtask\grabbers\SameTextGrabber.java
H:\workspace\TestTask\testtask\src\main\java\com\agileengine\testtask\utils\ResourceUtils.java
